<svg width="72" height="72" viewBox="0 0 72 72" fill="none" xmlns="http://www.w3.org/2000/svg">
<g clip-path="url(#clip0_18_45)">
<path d="M29.25 10.125H6.75V2.25C6.75 1.65326 6.98705 1.08097 7.40901 0.65901C7.83097 0.237053 8.40326 0 9 0L27 0C27.5967 0 28.169 0.237053 28.591 0.65901C29.0129 1.08097 29.25 1.65326 29.25 2.25V10.125Z" fill="#E2DBD5"/>
<path d="M29.2735 7.875H20.25V72H36.0468V20.25L29.2735 7.875Z" fill="#D4CCC7"/>
<path d="M20.25 7.875H29.2735V72H20.25V7.875Z" fill="#C6BAB3"/>
<path d="M23.85 18L22.5 20.25V72H2.25C1.65326 72 1.08097 71.763 0.65901 71.341C0.237053 70.919 0 70.3467 0 69.75V20.25C0.411749 19.5638 0.994183 18.9959 1.69059 18.6016C2.387 18.2073 3.17364 18 3.97392 18H23.85Z" fill="#E2DBD5"/>
<path d="M57.375 0H43.875C43.2537 0 42.75 0.50368 42.75 1.125V10.125C42.75 10.7463 43.2537 11.25 43.875 11.25H57.375C57.9963 11.25 58.5 10.7463 58.5 10.125V1.125C58.5 0.50368 57.9963 0 57.375 0Z" fill="#FFEAD2"/>
<path d="M57.375 0H54C54.0003 2.36896 53.3207 4.68823 52.042 6.68241C50.7632 8.67658 48.939 10.2619 46.7859 11.25H57.375C57.6734 11.25 57.9595 11.1315 58.1705 10.9205C58.3815 10.7095 58.5 10.4234 58.5 10.125V1.125C58.5 0.826631 58.3815 0.540483 58.1705 0.329505C57.9595 0.118526 57.6734 0 57.375 0V0Z" fill="#FADDC3"/>
<path d="M42.75 3.375H58.5V5.625H42.75V3.375Z" fill="#F5D3B8"/>
<path d="M61.875 72H39.375C39.0766 72 38.7905 71.8815 38.5795 71.6705C38.3685 71.4595 38.25 71.1734 38.25 70.875V28.125C38.2545 26.2243 38.6947 24.3499 39.5367 22.6459C40.3788 20.9419 41.6002 19.4536 43.1072 18.2953C45.406 16.5367 40.5 14.8056 40.5 12.2109C40.501 11.3596 40.8396 10.5435 41.4415 9.94152C42.0435 9.33957 42.8596 9.00097 43.7109 9H57.5391C58.3904 9.00097 59.2065 9.33957 59.8085 9.94152C60.4104 10.5435 60.749 11.3596 60.75 12.2109C60.75 13.6381 59.1937 14.939 59.1937 14.939C57.9479 15.9822 57.0293 17.443 58.1428 18.2947C59.6499 19.4531 60.8714 20.9415 61.7134 22.6456C62.5554 24.3497 62.9955 26.2242 63 28.125V70.875C63 71.1734 62.8815 71.4595 62.6705 71.6705C62.4595 71.8815 62.1734 72 61.875 72Z" fill="#F09B73"/>
<path d="M38.25 43.7898V70.8751C38.25 71.1734 38.3685 71.4596 38.5795 71.6705C38.7905 71.8815 39.0766 72 39.375 72H61.875C62.1734 72 62.4595 71.8815 62.6705 71.6705C62.8815 71.4596 63 71.1734 63 70.8751V28.1251C62.9995 27.4929 62.9501 26.8618 62.8522 26.2373C60.7365 31.1245 57.3273 35.3418 52.992 38.4349C48.6568 41.5279 43.5597 43.3794 38.25 43.7898Z" fill="#E58B6C"/>
<path d="M22.5 20.25H0L6.75 7.875H29.25L22.5 20.25Z" fill="#EFEBE8"/>
<path d="M39.375 72C47.0391 72 56.8789 70.4109 61.5343 65.9226C61.692 65.7711 61.8014 65.5762 61.8487 65.3626C61.896 65.149 61.879 64.9262 61.7999 64.7222L52.5833 40.9929C52.4818 40.7347 52.2886 40.5231 52.0408 40.3984C51.793 40.2737 51.5079 40.2448 51.2401 40.3171C48.1357 41.1493 47.6111 37.1777 49.6247 36.1738C49.8735 36.051 50.0674 35.8395 50.1681 35.581C50.2688 35.3225 50.2692 35.0356 50.1691 34.7768L48.2999 29.9645C48.2172 29.7535 48.0728 29.5724 47.8854 29.4449C47.6981 29.3175 47.4766 29.2495 47.25 29.25H39.375V72Z" fill="#EED60F"/>
<path d="M39.375 72C34.0455 72.0163 28.9202 69.9513 25.0907 66.2448C24.9327 66.0911 24.8233 65.8945 24.7761 65.6792C24.7288 65.4639 24.7459 65.2395 24.8251 65.0339L26.201 61.4606C26.2785 61.2592 26.4123 61.0844 26.5865 60.9569C26.7606 60.8295 26.9677 60.7548 27.1831 60.7418C28.8577 60.6409 29.9815 58.3422 28.6353 56.9559C28.4857 56.8018 28.3833 56.608 28.3403 56.3975C28.2973 56.187 28.3154 55.9686 28.3926 55.7681L32.0278 46.3268C32.0892 46.1724 32.1837 46.0333 32.3048 45.9194C32.4258 45.8056 32.5703 45.7196 32.7282 45.6678C32.8861 45.6159 33.0534 45.5993 33.2184 45.6192C33.3834 45.6391 33.542 45.6949 33.6831 45.7829C36.4937 47.5765 38.4605 42.1852 35.2744 41.6611C35.1105 41.632 34.955 41.5673 34.8189 41.4715C34.6828 41.3757 34.5694 41.2512 34.4867 41.1067C34.4039 40.9623 34.354 40.8014 34.3402 40.6356C34.3265 40.4697 34.3493 40.3028 34.4071 40.1467L38.3251 29.9707C38.4068 29.7586 38.5508 29.5761 38.7383 29.4475C38.9257 29.3188 39.1477 29.25 39.375 29.25C39.6023 29.25 39.8243 29.3188 40.0117 29.4475C40.1992 29.5761 40.3432 29.7586 40.4249 29.9707L53.9249 65.0339C54.0041 65.2395 54.0212 65.4639 53.9739 65.6792C53.9267 65.8945 53.8173 66.0911 53.6593 66.2448C49.8298 69.9513 44.7045 72.0163 39.375 72Z" fill="#F8E868"/>
<path d="M53.925 65.0338L48.1014 49.9084C46.0458 54.4166 42.8364 58.3022 38.7977 61.1723C34.759 64.0425 30.0342 65.7955 25.1008 66.2541C28.94 69.9426 34.058 72.0017 39.3819 71.9999C44.7059 71.9982 49.8225 69.9357 53.6593 66.2447C53.8173 66.0911 53.9268 65.8944 53.974 65.6791C54.0212 65.4639 54.0042 65.2395 53.925 65.0338Z" fill="#F6E23D"/>
<path d="M43.875 64.125C45.739 64.125 47.25 62.614 47.25 60.75C47.25 58.886 45.739 57.375 43.875 57.375C42.011 57.375 40.5 58.886 40.5 60.75C40.5 62.614 42.011 64.125 43.875 64.125Z" fill="#F8E868"/>
<path d="M40.5 56.25C42.364 56.25 43.875 54.739 43.875 52.875C43.875 51.011 42.364 49.5 40.5 49.5C38.636 49.5 37.125 51.011 37.125 52.875C37.125 54.739 38.636 56.25 40.5 56.25Z" fill="#F6E23D"/>
<path d="M34.875 66.375C36.739 66.375 38.25 64.864 38.25 63C38.25 61.136 36.739 59.625 34.875 59.625C33.011 59.625 31.5 61.136 31.5 63C31.5 64.864 33.011 66.375 34.875 66.375Z" fill="#F8E868"/>
<path d="M42.75 62.9999C42.75 62.4729 42.8734 61.9533 43.1104 61.4826C43.3473 61.0118 43.6912 60.6031 44.1145 60.2892C44.5378 59.9753 45.0287 59.7648 45.5479 59.6747C46.0672 59.5846 46.6003 59.6174 47.1046 59.7703C46.9354 59.2123 46.6245 58.7077 46.2022 58.3056C45.7799 57.9035 45.2606 57.6176 44.695 57.4759C44.1294 57.3342 43.5367 57.3415 42.9747 57.497C42.4128 57.6525 41.9006 57.951 41.4883 58.3633C41.076 58.7756 40.7776 59.2877 40.6221 59.8497C40.4665 60.4117 40.4593 61.0043 40.601 61.57C40.7427 62.1356 41.0285 62.6548 41.4306 63.0771C41.8327 63.4994 42.3374 63.8103 42.8954 63.9795C42.7989 63.6619 42.7499 63.3318 42.75 62.9999Z" fill="#EED60F"/>
<path d="M39.375 55.1249C39.375 54.5979 39.4984 54.0783 39.7354 53.6076C39.9723 53.1368 40.3162 52.7281 40.7395 52.4142C41.1628 52.1003 41.6537 51.8898 42.1729 51.7997C42.6922 51.7096 43.2253 51.7424 43.7296 51.8953C43.5604 51.3373 43.2495 50.8327 42.8272 50.4306C42.4049 50.0285 41.8856 49.7426 41.32 49.6009C40.7544 49.4592 40.1617 49.4665 39.5997 49.622C39.0378 49.7775 38.5256 50.076 38.1133 50.4883C37.701 50.9006 37.4026 51.4127 37.2471 51.9747C37.0915 52.5367 37.0843 53.1293 37.226 53.695C37.3677 54.2606 37.6535 54.7798 38.0556 55.2021C38.4577 55.6244 38.9624 55.9353 39.5204 56.1045C39.4239 55.7869 39.3749 55.4568 39.375 55.1249Z" fill="#EED60F"/>
<path d="M33.7499 65.2499C33.7499 64.7229 33.8734 64.2033 34.1103 63.7326C34.3473 63.2618 34.6912 62.8531 35.1144 62.5392C35.5377 62.2253 36.0286 62.0148 36.5479 61.9247C37.0671 61.8346 37.6002 61.8674 38.1045 62.0203C37.9353 61.4623 37.6244 60.9577 37.2021 60.5556C36.7798 60.1535 36.2606 59.8676 35.695 59.7259C35.1293 59.5842 34.5367 59.5915 33.9747 59.747C33.4127 59.9025 32.9006 60.201 32.4883 60.6133C32.076 61.0256 31.7775 61.5377 31.622 62.0997C31.4665 62.6617 31.4592 63.2543 31.6009 63.82C31.7426 64.3856 32.0285 64.9048 32.4306 65.3271C32.8327 65.7494 33.3373 66.0603 33.8953 66.2295C33.7988 65.9119 33.7498 65.5818 33.7499 65.2499Z" fill="#EED60F"/>
<path d="M39.375 41.625C40.6176 41.625 41.625 40.6176 41.625 39.375C41.625 38.1324 40.6176 37.125 39.375 37.125C38.1324 37.125 37.125 38.1324 37.125 39.375C37.125 40.6176 38.1324 41.625 39.375 41.625Z" fill="#FCF5BE"/>
<path d="M41.625 45C42.2463 45 42.75 44.4963 42.75 43.875C42.75 43.2537 42.2463 42.75 41.625 42.75C41.0037 42.75 40.5 43.2537 40.5 43.875C40.5 44.4963 41.0037 45 41.625 45Z" fill="#FCF5BE"/>
<path d="M47.2547 46.125L49.5047 70.9768C49.5301 71.2564 49.6591 71.5164 49.8664 71.7057C50.0737 71.895 50.3443 72 50.6251 72H66.3751C66.6558 72 66.9264 71.895 67.1337 71.7057C67.341 71.5164 67.47 71.2564 67.4954 70.9768L69.7454 46.125H47.2547Z" fill="#81C784"/>
<path d="M50.0625 23.625C51.6158 23.625 52.875 22.3658 52.875 20.8125C52.875 19.2592 51.6158 18 50.0625 18C48.5092 18 47.25 19.2592 47.25 20.8125C47.25 22.3658 48.5092 23.625 50.0625 23.625Z" fill="#F2BBA5"/>
<path d="M54.5625 27C55.4945 27 56.25 26.2445 56.25 25.3125C56.25 24.3805 55.4945 23.625 54.5625 23.625C53.6305 23.625 52.875 24.3805 52.875 25.3125C52.875 26.2445 53.6305 27 54.5625 27Z" fill="#F2BBA5"/>
<path d="M9 15.75C10.2426 15.75 11.25 14.7426 11.25 13.5C11.25 12.2574 10.2426 11.25 9 11.25C7.75736 11.25 6.75 12.2574 6.75 13.5C6.75 14.7426 7.75736 15.75 9 15.75Z" fill="white"/>
<path d="M12.375 18C12.9963 18 13.5 17.4963 13.5 16.875C13.5 16.2537 12.9963 15.75 12.375 15.75C11.7537 15.75 11.25 16.2537 11.25 16.875C11.25 17.4963 11.7537 18 12.375 18Z" fill="white"/>
<path d="M52.875 54C54.1176 54 55.125 52.9926 55.125 51.75C55.125 50.5074 54.1176 49.5 52.875 49.5C51.6324 49.5 50.625 50.5074 50.625 51.75C50.625 52.9926 51.6324 54 52.875 54Z" fill="#C8E6C9"/>
<path d="M56.25 56.25C56.8713 56.25 57.375 55.7463 57.375 55.125C57.375 54.5037 56.8713 54 56.25 54C55.6287 54 55.125 54.5037 55.125 55.125C55.125 55.7463 55.6287 56.25 56.25 56.25Z" fill="#C8E6C9"/>
<path d="M0 69.75C0 70.3467 0.237053 70.919 0.65901 71.341C1.08097 71.763 1.65326 72 2.25 72H22.5V60.75C18.6187 69.6313 0 69.75 0 69.75Z" fill="#D4CCC7"/>
<path d="M0 29.25H22.5V60.75H0V29.25Z" fill="#EA6049"/>
<path d="M0 52.353V60.75H22.5V33.9879C20.5781 38.6822 17.5129 42.8215 13.5832 46.029C9.65352 49.2365 4.98417 51.4104 0 52.353H0Z" fill="#DE513E"/>
<path d="M4.5 47.25C4.5 43.9466 10.125 36 11.25 36C12.375 36 18 43.7882 18 47.25C18 55.3244 4.5 56.5172 4.5 47.25Z" fill="white"/>
<path d="M5.07513 50.2298C7.64998 56.1132 18 54.3199 18 47.2501C18 46.4602 17.7065 45.4446 17.2406 44.3481C15.3749 48.9453 10.017 51.6695 5.07513 50.2298Z" fill="#EFEBE8"/>
<path d="M70.875 47.25H46.125C45.8266 47.25 45.5405 47.1315 45.3295 46.9205C45.1185 46.7095 45 46.4234 45 46.125C45 45.8266 45.1185 45.5405 45.3295 45.3295C45.5405 45.1185 45.8266 45 46.125 45H70.875C71.1734 45 71.4595 45.1185 71.6705 45.3295C71.8815 45.5405 72 45.8266 72 46.125C72 46.4234 71.8815 46.7095 71.6705 46.9205C71.4595 47.1315 71.1734 47.25 70.875 47.25Z" fill="#49AD4D"/>
<path d="M48.9375 64.7074L49.5051 70.9768C49.5305 71.2563 49.6594 71.5162 49.8666 71.7055C50.0738 71.8948 50.3443 71.9999 50.625 72H66.375C66.6557 72 66.9263 71.895 67.1336 71.7057C67.3409 71.5164 67.47 71.2564 67.4954 70.9768L69.2326 51.7881C67.271 55.525 64.3656 58.6836 60.8053 60.95C57.2449 63.2165 53.1535 64.5118 48.9375 64.7074Z" fill="#66BB6A"/>
</g>
<defs>
<clipPath id="clip0_18_45">
<rect width="72" height="72" fill="white"/>
</clipPath>
</defs>
</svg>
